22

2 40
12
h 1 12 e
t 0 7 n
r 0 18 w
f 0 2 n
r 1 13 n
h 0 3 s
f 0 5 n
r 1 38 e
f 0 28 s
t 1 0 s
f 0 35 e
h 0 30 w
61 12

21 18
3
t 3 1 s
t 7 10 n
h 11 14 e
172 17

5 31
3
h 3 22 n
h 4 8 w
r 4 6 w
80 17

45 46
7
r 29 44 s
f 27 33 w
t 1 4 e
f 10 21 e
h 33 9 s
h 33 30 s
h 14 30 n
24 12

35 45
7
r 30 44 n
h 15 12 s
h 13 24 w
t 25 5 e
r 34 33 n
f 26 26 e
t 14 6 w
114 16

38 41
1
t 33 18 n
155 10

24 49
7
r 12 41 w
t 6 33 n
f 8 45 w
h 12 15 n
h 1 34 e
f 4 12 e
h 13 15 s
112 11

25 31
5
f 24 17 n
r 7 0 n
t 8 14 e
f 16 2 s
f 3 28 n
46 18

11 13
6
r 8 4 e
f 9 10 w
r 10 5 n
f 4 12 w
h 0 12 n
r 5 7 e
101 11

9 16
11
f 6 15 s
t 3 12 w
r 3 10 e
f 6 15 e
h 3 13 e
r 6 3 e
t 4 9 n
r 3 4 s
r 5 9 s
h 1 9 s
h 4 6 s
112 5

42 50
14
t 36 32 w
t 25 30 s
f 37 47 e
r 20 35 e
h 16 11 s
t 19 45 w
h 1 11 e
h 32 6 e
t 8 16 w
f 8 5 s
t 40 42 w
r 16 44 e
t 30 20 n
f 32 26 w
81 19

36 24
3
h 23 11 n
r 19 23 e
r 11 19 w
76 10

8 35
10
f 2 18 w
f 2 14 s
r 4 30 s
h 2 7 n
t 4 33 n
r 0 7 e
f 2 25 e
h 2 5 s
h 2 28 w
f 7 10 s
18 5

1 17
2
f 0 8 n
r 0 13 e
65 1

30 17
1
t 1 14 w
131 5

11 29
8
r 1 0 n
r 0 22 w
t 10 5 s
f 4 17 s
t 2 24 n
r 10 18 w
f 3 22 s
t 4 19 n
156 15

9 44
3
f 5 11 n
r 2 39 w
r 2 7 s
101 13

18 44
1
r 12 21 s
83 15

22 21
11
h 16 12 n
h 0 5 w
h 8 5 s
h 16 4 n
h 15 14 e
r 4 8 w
h 19 20 w
r 21 2 s
t 4 11 e
h 19 14 s
r 5 0 n
195 4

24 34
2
t 16 17 w
r 13 31 e
200 5

37 49
10
f 34 15 s
r 8 32 n
h 3 21 e
f 14 4 e
f 0 43 n
t 1 44 w
r 16 26 n
t 5 40 s
h 19 42 e
r 18 30 w
59 5

41 18
8
r 35 0 w
h 33 8 e
f 4 1 s
f 29 11 n
h 25 13 n
f 21 13 e
h 12 16 w
t 1 5 s
71 5
